#Command:  
^D:\PROJECTS\LASER TOOL\CMAKEFILES\3.7.1\COMPILERIDC\DEBUG\CMAKECCOMPILERID.OBJ
C:\USERS\ZIYAD\APPDATA\LOCAL\MICROSOFT\APPLICATIONINSIGHTS\VSTELAIF-312CBD79-9DBB-4C48-A7DA-3CC2A931CB70\7C4E80D7C8314B1FBFCB074EB56AE65B.TMP
