^D:\PROJECTS\LASER TOOL\DEPENDENCIES\IMGUI\IMGUI.CPP|D:\PROJECTS\LASER TOOL\DEPENDENCIES\IMGUI\IMGUI_DEMO.CPP|D:\PROJECTS\LASER TOOL\DEPENDENCIES\IMGUI\IMGUI_DRAW.CPP|D:\PROJECTS\LASER TOOL\SOURCE\MAIN.CPP
D:\PROJECTS\LASER TOOL\LAZERTEST.DIR\RELEASE\IMGUI_DEMO.OBJ
D:\PROJECTS\LASER TOOL\LAZERTEST.DIR\RELEASE\IMGUI_DRAW.OBJ
D:\PROJECTS\LASER TOOL\LAZERTEST.DIR\RELEASE\IMGUI.OBJ
D:\PROJECTS\LASER TOOL\LAZERTEST.DIR\RELEASE\MAIN.OBJ
