#Command: "C:\Windows\system32\wermgr.exe" "-queuereporting_s_user" "C:\Users\ziyad\AppData\Local\Microsoft\Windows\WER\ReportQueue\NonCritical_VCTIP.EXE_fa3f56286735c412927232dfaf152f7e4d865291_00000000_cab_1c9c0b0f" 
C:\WINDOWS\SYSTEM32\WSHQOS.DLL
C:\WINDOWS\SYSTEM32\DNSAPI.DLL
C:\WINDOWS\SYSTEM32\WINDOWSPOWERSHELL\V1.0\POWERSHELL.EXE
