^D:\PROJECTS\LASER TOOL\DEPENDENCIES\IMGUI\IMGUI.CPP
/c /I"D:\PROJECTS\LASER TOOL\.\INCLUDE" /I"D:\PROJECTS\LASER TOOL\.\DEPENDENCIES\TINYWINDOW\INCLUDE" /I"D:\PROJECTS\LASER TOOL\.\DEPENDENCIES\TINYEXTENDER\INCLUDE" /I"D:\PROJECTS\LASER TOOL\.\DEPENDENCIES\TINYSHADERS\INCLUDE" /I"D:\PROJECTS\LASER TOOL\.\DEPENDENCIES\TINYCLOCK\INCLUDE" /I"D:\PROJECTS\LASER TOOL\.\DEPENDENCIES\IMGUI" /I"D:\PROJECTS\LASER TOOL\.\DEPENDENCIES\GLM" /I"D:\PROJECTS\LASER TOOL\.\DEPENDENCIES\STB" /Zi /nologo /W3 /WX- /Od /Ob0 /Oy- /D WIN32 /D _WINDOWS /D _DEBUG /D "CMAKE_INTDIR=\"Debug\"" /D _MBCS /Gm- /EHsc /RTC1 /MDd /GS /fp:precise /Zc:wchar_t /Zc:forScope /Zc:inline /GR /Fo"LAZERTEST.DIR\DEBUG\\" /Fd"LAZERTEST.DIR\DEBUG\VC140.PDB" /Gd /TP /analyze- D:\PROJECTS\LASER TOOL\DEPENDENCIES\IMGUI\IMGUI.CPP
^D:\PROJECTS\LASER TOOL\DEPENDENCIES\IMGUI\IMGUI_DRAW.CPP
/c /I"D:\PROJECTS\LASER TOOL\.\INCLUDE" /I"D:\PROJECTS\LASER TOOL\.\DEPENDENCIES\TINYWINDOW\INCLUDE" /I"D:\PROJECTS\LASER TOOL\.\DEPENDENCIES\TINYEXTENDER\INCLUDE" /I"D:\PROJECTS\LASER TOOL\.\DEPENDENCIES\TINYSHADERS\INCLUDE" /I"D:\PROJECTS\LASER TOOL\.\DEPENDENCIES\TINYCLOCK\INCLUDE" /I"D:\PROJECTS\LASER TOOL\.\DEPENDENCIES\IMGUI" /I"D:\PROJECTS\LASER TOOL\.\DEPENDENCIES\GLM" /I"D:\PROJECTS\LASER TOOL\.\DEPENDENCIES\STB" /Zi /nologo /W3 /WX- /Od /Ob0 /Oy- /D WIN32 /D _WINDOWS /D _DEBUG /D "CMAKE_INTDIR=\"Debug\"" /D _MBCS /Gm- /EHsc /RTC1 /MDd /GS /fp:precise /Zc:wchar_t /Zc:forScope /Zc:inline /GR /Fo"LAZERTEST.DIR\DEBUG\\" /Fd"LAZERTEST.DIR\DEBUG\VC140.PDB" /Gd /TP /analyze- D:\PROJECTS\LASER TOOL\DEPENDENCIES\IMGUI\IMGUI_DRAW.CPP
^D:\PROJECTS\LASER TOOL\DEPENDENCIES\IMGUI\IMGUI_DEMO.CPP
/c /I"D:\PROJECTS\LASER TOOL\.\INCLUDE" /I"D:\PROJECTS\LASER TOOL\.\DEPENDENCIES\TINYWINDOW\INCLUDE" /I"D:\PROJECTS\LASER TOOL\.\DEPENDENCIES\TINYEXTENDER\INCLUDE" /I"D:\PROJECTS\LASER TOOL\.\DEPENDENCIES\TINYSHADERS\INCLUDE" /I"D:\PROJECTS\LASER TOOL\.\DEPENDENCIES\TINYCLOCK\INCLUDE" /I"D:\PROJECTS\LASER TOOL\.\DEPENDENCIES\IMGUI" /I"D:\PROJECTS\LASER TOOL\.\DEPENDENCIES\GLM" /I"D:\PROJECTS\LASER TOOL\.\DEPENDENCIES\STB" /Zi /nologo /W3 /WX- /Od /Ob0 /Oy- /D WIN32 /D _WINDOWS /D _DEBUG /D "CMAKE_INTDIR=\"Debug\"" /D _MBCS /Gm- /EHsc /RTC1 /MDd /GS /fp:precise /Zc:wchar_t /Zc:forScope /Zc:inline /GR /Fo"LAZERTEST.DIR\DEBUG\\" /Fd"LAZERTEST.DIR\DEBUG\VC140.PDB" /Gd /TP /analyze- D:\PROJECTS\LASER TOOL\DEPENDENCIES\IMGUI\IMGUI_DEMO.CPP
^D:\PROJECTS\LASER TOOL\SOURCE\MAIN.CPP
/c /I"D:\PROJECTS\LASER TOOL\.\INCLUDE" /I"D:\PROJECTS\LASER TOOL\.\DEPENDENCIES\TINYWINDOW\INCLUDE" /I"D:\PROJECTS\LASER TOOL\.\DEPENDENCIES\TINYEXTENDER\INCLUDE" /I"D:\PROJECTS\LASER TOOL\.\DEPENDENCIES\TINYSHADERS\INCLUDE" /I"D:\PROJECTS\LASER TOOL\.\DEPENDENCIES\TINYCLOCK\INCLUDE" /I"D:\PROJECTS\LASER TOOL\.\DEPENDENCIES\IMGUI" /I"D:\PROJECTS\LASER TOOL\.\DEPENDENCIES\GLM" /I"D:\PROJECTS\LASER TOOL\.\DEPENDENCIES\STB" /Zi /nologo /W3 /WX- /Od /Ob0 /Oy- /D WIN32 /D _WINDOWS /D _DEBUG /D "CMAKE_INTDIR=\"Debug\"" /D _MBCS /Gm- /EHsc /RTC1 /MDd /GS /fp:precise /Zc:wchar_t /Zc:forScope /Zc:inline /GR /Fo"LAZERTEST.DIR\DEBUG\\" /Fd"LAZERTEST.DIR\DEBUG\VC140.PDB" /Gd /TP /analyze- D:\PROJECTS\LASER TOOL\SOURCE\MAIN.CPP
